[gd_scene load_steps=3 format=2]

[ext_resource path="res://steel_block/steel_block.png" type="Texture" id=1]

[sub_resource type="RectangleShape2D" id=1]

custom_solver_bias = 0.0
extents = Vector2( 18, 18 )

[node name="SteelBlock" type="StaticBody2D" index="0"]

input_pickable = false
collision_layer = 1
collision_mask = 1
constant_linear_velocity = Vector2( 0, 0 )
constant_angular_velocity = 0.0
friction = 1.0
bounce = 0.0

[node name="Sprite" type="Sprite" parent="." index="0"]

scale = Vector2( 2, 2 )
texture = ExtResource( 1 )
_sections_unfolded = [ "Transform" ]

[node name="CollisionShape2D" type="CollisionShape2D" parent="." index="1"]

shape = SubResource( 1 )
_sections_unfolded = [ "Transform" ]


