[gd_scene load_steps=7 format=2]

[ext_resource path="res://alloi/alloi.png" type="Texture" id=1]

[sub_resource type="GDScript" id=4]

script/source = "extends KinematicBody2D

const GRAVITY = 950 * 2
const JUMP_HEIGHT = 140
const MOVE_SPEED = 360

var jump_strength = 500
var move_dir = 0
var physics_vector = Vector2()

func _ready():
	var jump_height = JUMP_HEIGHT
	var seconds_to_peak = sqrt((2.0 * jump_height) / GRAVITY)
	jump_strength = seconds_to_peak * GRAVITY

func _physics_process(delta):
	var was_on_floor = is_on_floor()
	
	move_and_slide((Vector2(1, 0) * move_dir * MOVE_SPEED) + physics_vector, Vector2(0, -1), 5, 4, deg2rad(60))
	
	if was_on_floor:
		if is_on_floor():
			physics_vector.y = 100
		else:
			physics_vector.y = min(physics_vector.y, 0)
	else:
		physics_vector.y += GRAVITY * delta
	
	if is_on_floor():
		if move_dir == 0:
			$AnimationPlayer.play(\"idle\")
		else:
			if $AnimationPlayer.current_animation != \"run\":
				$AnimationPlayer.play(\"run\")
	else:
		$AnimationPlayer.play(\"airborne\")

func _unhandled_input(event):
	if event.is_action(\"move_right\") or event.is_action(\"move_left\"):
		move_dir = int(Input.is_action_pressed(\"move_right\")) - int(Input.is_action_pressed(\"move_left\"))
		
		if move_dir != 0 and move_dir != scale.y:
			scale.x = -1
	elif event.is_action_pressed(\"jump\") and is_on_floor():
		physics_vector.y = -jump_strength
"

[sub_resource type="Animation" id=5]

resource_name = "airborne"
length = 1.0
loop = false
step = 0.1
tracks/0/type = "value"
tracks/0/path = NodePath("Sprite:frame")
tracks/0/interp = 1
tracks/0/loop_wrap = true
tracks/0/imported = false
tracks/0/enabled = true
tracks/0/keys = {
"times": PoolRealArray( 0 ),
"transitions": PoolRealArray( 1 ),
"update": 1,
"values": [ 5 ]
}

[sub_resource type="Animation" id=2]

resource_name = "idle"
length = 1.0
loop = false
step = 0.1
tracks/0/type = "value"
tracks/0/path = NodePath("Sprite:frame")
tracks/0/interp = 1
tracks/0/loop_wrap = true
tracks/0/imported = false
tracks/0/enabled = true
tracks/0/keys = {
"times": PoolRealArray( 0 ),
"transitions": PoolRealArray( 1 ),
"update": 1,
"values": [ 0 ]
}

[sub_resource type="Animation" id=3]

resource_name = "run"
length = 0.21
loop = true
step = 0.1
tracks/0/type = "value"
tracks/0/path = NodePath("Sprite:frame")
tracks/0/interp = 1
tracks/0/loop_wrap = true
tracks/0/imported = false
tracks/0/enabled = true
tracks/0/keys = {
"times": PoolRealArray( 0, 0.1 ),
"transitions": PoolRealArray( 1, 1 ),
"update": 1,
"values": [ 2, 3 ]
}

[sub_resource type="RectangleShape2D" id=1]

custom_solver_bias = 0.0
extents = Vector2( 10, 24 )

[node name="Alloi" type="KinematicBody2D" index="0"]

input_pickable = false
collision_layer = 1
collision_mask = 1
collision/safe_margin = 0.08
script = SubResource( 4 )
_sections_unfolded = [ "Transform" ]

[node name="AnimationPlayer" type="AnimationPlayer" parent="." index="0"]

root_node = NodePath("..")
autoplay = ""
playback_process_mode = 1
playback_default_blend_time = 0.0
playback_speed = 1.0
anims/airborne = SubResource( 5 )
anims/idle = SubResource( 2 )
anims/run = SubResource( 3 )
blend_times = [  ]

[node name="Sprite" type="Sprite" parent="." index="1"]

position = Vector2( 0, -28 )
scale = Vector2( 2, 2 )
texture = ExtResource( 1 )
hframes = 31
_sections_unfolded = [ "Animation", "Transform" ]

[node name="CollisionShape2D" type="CollisionShape2D" parent="." index="2"]

position = Vector2( 0, -24 )
shape = SubResource( 1 )
_sections_unfolded = [ "Transform" ]

[node name="Camera2D" type="Camera2D" parent="." index="3"]

offset = Vector2( 0, -180 )
anchor_mode = 1
rotating = false
current = true
zoom = Vector2( 1, 1 )
limit_left = -10000000
limit_top = -10000000
limit_right = 10000000
limit_bottom = 10000000
limit_smoothed = false
drag_margin_h_enabled = true
drag_margin_v_enabled = true
smoothing_enabled = true
smoothing_speed = 20.0
offset_v = 0.0
offset_h = 0.0
drag_margin_left = 0.1
drag_margin_top = 0.99
drag_margin_right = 0.1
drag_margin_bottom = 0.01
editor_draw_screen = true
editor_draw_limits = false
editor_draw_drag_margin = true
_sections_unfolded = [ "Drag Margin", "Smoothing" ]


